{"gallery":{"page":3,"pages":5,"imgCount":20,"total":91,"nextPageUrl":"","imgRoot":"http://mmagicbox.github.io/android/home/room/indoor","imgList":[{"name":"indoor_46.jpg","title":"图片40"},{"name":"indoor_47.jpg","title":"图片41"},{"name":"indoor_48.jpg","title":"图片42"},{"name":"indoor_49.jpg","title":"图片43"},{"name":"indoor_5.jpg","title":"图片44"},{"name":"indoor_50.jpg","title":"图片45"},{"name":"indoor_51.jpg","title":"图片46"},{"name":"indoor_52.jpg","title":"图片47"},{"name":"indoor_53.jpg","title":"图片48"},{"name":"indoor_54.jpg","title":"图片49"},{"name":"indoor_55.jpg","title":"图片50"},{"name":"indoor_56.jpg","title":"图片51"},{"name":"indoor_57.jpg","title":"图片52"},{"name":"indoor_58.jpg","title":"图片53"},{"name":"indoor_59.jpg","title":"图片54"},{"name":"indoor_6.jpg","title":"图片55"},{"name":"indoor_60.jpg","title":"图片56"},{"name":"indoor_61.jpg","title":"图片57"},{"name":"indoor_62.jpg","title":"图片58"},{"name":"indoor_63.jpg","title":"图片59"}]}}