{"gallery":{"page":1,"pages":5,"imgCount":20,"total":91,"nextPageUrl":"","imgRoot":"http://mmagicbox.github.io/android/home/room/indoor","imgList":[{"name":"indoor_1.jpg","title":"图片0"},{"name":"indoor_10.jpg","title":"图片1"},{"name":"indoor_11.jpg","title":"图片2"},{"name":"indoor_12.jpg","title":"图片3"},{"name":"indoor_13.jpg","title":"图片4"},{"name":"indoor_14.jpg","title":"图片5"},{"name":"indoor_15.jpg","title":"图片6"},{"name":"indoor_16.jpg","title":"图片7"},{"name":"indoor_17.jpg","title":"图片8"},{"name":"indoor_18.jpg","title":"图片9"},{"name":"indoor_19.jpg","title":"图片10"},{"name":"indoor_2.jpg","title":"图片11"},{"name":"indoor_20.jpg","title":"图片12"},{"name":"indoor_21.jpg","title":"图片13"},{"name":"indoor_22.jpg","title":"图片14"},{"name":"indoor_23.jpg","title":"图片15"},{"name":"indoor_24.jpg","title":"图片16"},{"name":"indoor_25.jpg","title":"图片17"},{"name":"indoor_26.jpg","title":"图片18"},{"name":"indoor_27.jpg","title":"图片19"}]}}