{"gallery":{"page":2,"pages":5,"imgCount":20,"total":91,"nextPageUrl":"","imgRoot":"http://mmagicbox.github.io/android/home/room/indoor","imgList":[{"name":"indoor_28.jpg","title":"图片20"},{"name":"indoor_29.jpg","title":"图片21"},{"name":"indoor_3.jpg","title":"图片22"},{"name":"indoor_30.jpg","title":"图片23"},{"name":"indoor_31.jpg","title":"图片24"},{"name":"indoor_32.jpg","title":"图片25"},{"name":"indoor_33.jpg","title":"图片26"},{"name":"indoor_34.jpg","title":"图片27"},{"name":"indoor_35.jpg","title":"图片28"},{"name":"indoor_36.jpg","title":"图片29"},{"name":"indoor_37.jpg","title":"图片30"},{"name":"indoor_38.jpg","title":"图片31"},{"name":"indoor_39.jpg","title":"图片32"},{"name":"indoor_4.jpg","title":"图片33"},{"name":"indoor_40.jpg","title":"图片34"},{"name":"indoor_41.jpg","title":"图片35"},{"name":"indoor_42.jpg","title":"图片36"},{"name":"indoor_43.jpg","title":"图片37"},{"name":"indoor_44.jpg","title":"图片38"},{"name":"indoor_45.jpg","title":"图片39"}]}}