{"gallery":{"page":4,"pages":5,"imgCount":20,"total":91,"nextPageUrl":"","imgRoot":"http://mmagicbox.github.io/android/home/room/indoor","imgList":[{"name":"indoor_64.jpg","title":"图片60"},{"name":"indoor_65.jpg","title":"图片61"},{"name":"indoor_66.jpg","title":"图片62"},{"name":"indoor_67.jpg","title":"图片63"},{"name":"indoor_68.jpg","title":"图片64"},{"name":"indoor_69.jpg","title":"图片65"},{"name":"indoor_7.jpg","title":"图片66"},{"name":"indoor_70.jpg","title":"图片67"},{"name":"indoor_71.jpg","title":"图片68"},{"name":"indoor_72.jpg","title":"图片69"},{"name":"indoor_73.jpg","title":"图片70"},{"name":"indoor_74.jpg","title":"图片71"},{"name":"indoor_75.jpg","title":"图片72"},{"name":"indoor_76.jpg","title":"图片73"},{"name":"indoor_77.jpg","title":"图片74"},{"name":"indoor_78.jpg","title":"图片75"},{"name":"indoor_79.jpg","title":"图片76"},{"name":"indoor_8.jpg","title":"图片77"},{"name":"indoor_80.jpg","title":"图片78"},{"name":"indoor_81.jpg","title":"图片79"}]}}