{"gallery":{"page":5,"pages":5,"imgCount":11,"total":91,"nextPageUrl":"","imgRoot":"http://mmagicbox.github.io/android/home/room/indoor","imgList":[{"name":"indoor_82.jpg","title":"图片80"},{"name":"indoor_83.jpg","title":"图片81"},{"name":"indoor_84.jpg","title":"图片82"},{"name":"indoor_85.jpg","title":"图片83"},{"name":"indoor_86.jpg","title":"图片84"},{"name":"indoor_87.jpg","title":"图片85"},{"name":"indoor_88.jpg","title":"图片86"},{"name":"indoor_89.jpg","title":"图片87"},{"name":"indoor_9.jpg","title":"图片88"},{"name":"indoor_90.jpg","title":"图片89"},{"name":"indoor_91.jpg","title":"图片90"}]}}