{
  "photos": {
    "page": 1,
    "pages": 5,
    "perpage": 100,
    "total": 500,
    "photo": [
      {
        "id": "14561997003",
        "owner": "29242822@N00",
        "secret": "4b5e4ddf92",
        "server": "2910",
        "farm": 3,
        "title": "Curvaceous building",
        "ispublic": 1,
        "isfriend": 0,
        "isfamily": 0
      },
      {
        "id": "14562744093",
        "owner": "53673076@N02",
        "secret": "a0f58ff6b2",
        "server": "5487",
        "farm": 6,
        "title": "Contested Cleat",
        "ispublic": 1,
        "isfriend": 0,
        "isfamily": 0
      },
      {
        "id": "14562230853",
        "owner": "64832905@N04",
        "secret": "d6b52873ae",
        "server": "3843",
        "farm": 4,
        "title": "beginning",
        "ispublic": 1,
        "isfriend": 0,
        "isfamily": 0
      },
      {
        "id": "14545558755",
        "owner": "28778620@N04",
        "secret": "58f7da2bb2",
        "server": "3912",
        "farm": 4,
        "title": "Another sunset",
        "ispublic": 1,
        "isfriend": 0,
        "isfamily": 0
      },
      {
        "id": "14543604772",
        "owner": "75008327@N06",
        "secret": "ee4deb9c7a",
        "server": "3888",
        "farm": 4,
        "title": "Carved in Color *explore*",
        "ispublic": 1,
        "isfriend": 0,
        "isfamily": 0
      },
      {
        "id": "14542834462",
        "owner": "42766545@N07",
        "secret": "4e54b429cd",
        "server": "3881",
        "farm": 4,
        "title": "Desert rose",
        "ispublic": 1,
        "isfriend": 0,
        "isfamily": 0
      },
      {
        "id": "14542824824",
        "owner": "63118615@N02",
        "secret": "1b79384554",
        "server": "3864",
        "farm": 4,
        "title": "Roma - 2014",
        "ispublic": 1,
        "isfriend": 0,
        "isfamily": 0
      },
      {
        "id": "14542151194",
        "owner": "38811370@N05",
        "secret": "9551297b6c",
        "server": "5526",
        "farm": 6,
        "title": "Oregon's Elowah Falls",
        "ispublic": 1,
        "isfriend": 0,
        "isfamily": 0
      },
      {
        "id": "14542079685",
        "owner": "34254855@N02",
        "secret": "33ab1598ac",
        "server": "3856",
        "farm": 4,
        "title": "Shining in the Darkness",
        "ispublic": 1,
        "isfriend": 0,
        "isfamily": 0
      },
      {
        "id": "14542077014",
        "owner": "81030000@N07",
        "secret": "4ebd842aa0",
        "server": "3874",
        "farm": 4,
        "title": "Faling",
        "ispublic": 1,
        "isfriend": 0,
        "isfamily": 0
      },
      {
        "id": "14541681755",
        "owner": "54887115@N04",
        "secret": "6bc12cba57",
        "server": "2918",
        "farm": 3,
        "title": "Millennium Hilton Pool",
        "ispublic": 1,
        "isfriend": 0,
        "isfamily": 0
      },
      {
        "id": "14540329372",
        "owner": "52301160@N02",
        "secret": "3750f7864f",
        "server": "2908",
        "farm": 3,
        "title": "A walk in the forest",
        "ispublic": 1,
        "isfriend": 0,
        "isfamily": 0
      },
      {
        "id": "14539060071",
        "owner": "74732129@N02",
        "secret": "1d652d1294",
        "server": "2919",
        "farm": 3,
        "title": "#2 - For Marcus Rothkowitz - Explore July 1, 2014",
        "ispublic": 1,
        "isfriend": 0,
        "isfamily": 0
      },
      {
        "id": "14521043126",
        "owner": "41389393@N02",
        "secret": "7b95ef7147",
        "server": "5491",
        "farm": 6,
        "title": "wet street",
        "ispublic": 1,
        "isfriend": 0,
        "isfamily": 0
      },
      {
        "id": "14520144326",
        "owner": "54127929@N08",
        "secret": "be1eca3ff7",
        "server": "3914",
        "farm": 4,
        "title": "NYC 4th of July [EXPLORE]",
        "ispublic": 1,
        "isfriend": 0,
        "isfamily": 0
      },
      {
        "id": "14362139179",
        "owner": "58879156@N03",
        "secret": "9f86068868",
        "server": "3925",
        "farm": 4,
        "title": "Lumiere",
        "ispublic": 1,
        "isfriend": 0,
        "isfamily": 0
      },
      {
        "id": "14355882900",
        "owner": "52885315@N05",
        "secret": "98e9181ae7",
        "server": "3882",
        "farm": 4,
        "title": "Bay Fence",
        "ispublic": 1,
        "isfriend": 0,
        "isfamily": 0
      },
      {
        "id": "14541225944",
        "owner": "59920087@N06",
        "secret": "c88e373176",
        "server": "2905",
        "farm": 3,
        "title": "homemade",
        "ispublic": 1,
        "isfriend": 0,
        "isfamily": 0
      },
      {
        "id": "14362033039",
        "owner": "37486507@N06",
        "secret": "dfe0453619",
        "server": "2902",
        "farm": 3,
        "title": "A distant ship, smoke on the horizon (Explore!!!)",
        "ispublic": 1,
        "isfriend": 0,
        "isfamily": 0
      },
      {
        "id": "14518156736",
        "owner": "75439979@N08",
        "secret": "e156c0320f",
        "server": "3861",
        "farm": 4,
        "title": "2321 Dark Arches- Apamea monoglypha",
        "ispublic": 1,
        "isfriend": 0,
        "isfamily": 0
      },
      {
        "id": "14542193494",
        "owner": "92231417@N05",
        "secret": "265fe4b03d",
        "server": "2915",
        "farm": 3,
        "title": "Guillemots",
        "ispublic": 1,
        "isfriend": 0,
        "isfamily": 0
      },
      {
        "id": "14543009222",
        "owner": "74346935@N02",
        "secret": "2d87891e7b",
        "server": "5570",
        "farm": 6,
        "title": "Joshua Tree National Park",
        "ispublic": 1,
        "isfriend": 0,
        "isfamily": 0
      },
      {
        "id": "14542665725",
        "owner": "60913863@N08",
        "secret": "10ecbacec8",
        "server": "5596",
        "farm": 6,
        "title": "Scorcio di Firenze 2 (glimpse of Firenze 2)",
        "ispublic": 1,
        "isfriend": 0,
        "isfamily": 0
      },
      {
        "id": "14542349705",
        "owner": "67338480@N07",
        "secret": "b29b34ab71",
        "server": "5490",
        "farm": 6,
        "title": "Shed",
        "ispublic": 1,
        "isfriend": 0,
        "isfamily": 0
      },
      {
        "id": "14358672080",
        "owner": "16038422@N07",
        "secret": "2445b47b70",
        "server": "2900",
        "farm": 3,
        "title": "Ithaca Gorges",
        "ispublic": 1,
        "isfriend": 0,
        "isfamily": 0
      },
      {
        "id": "14356775178",
        "owner": "56904808@N00",
        "secret": "4009c7d3da",
        "server": "2912",
        "farm": 3,
        "title": "Glockenturmchen",
        "ispublic": 1,
        "isfriend": 0,
        "isfamily": 0
      },
      {
        "id": "14522844606",
        "owner": "26953621@N03",
        "secret": "57f611ce4e",
        "server": "3872",
        "farm": 4,
        "title": "Poppies",
        "ispublic": 1,
        "isfriend": 0,
        "isfamily": 0
      },
      {
        "id": "14360516090",
        "owner": "20557649@N00",
        "secret": "2c3165021f",
        "server": "3872",
        "farm": 4,
        "title": "daybreak (or shortly thereafter)",
        "ispublic": 1,
        "isfriend": 0,
        "isfamily": 0
      },
      {
        "id": "14543318325",
        "owner": "12032134@N08",
        "secret": "477c8b5a2d",
        "server": "2912",
        "farm": 3,
        "title": "Toby Three Paws",
        "ispublic": 1,
        "isfriend": 0,
        "isfamily": 0
      },
      {
        "id": "14522432906",
        "owner": "29001722@N07",
        "secret": "80b3227bc5",
        "server": "5588",
        "farm": 6,
        "title": "Sailing",
        "ispublic": 1,
        "isfriend": 0,
        "isfamily": 0
      },
      {
        "id": "14562416213",
        "owner": "50723481@N03",
        "secret": "f6b0e91b17",
        "server": "2940",
        "farm": 3,
        "title": "Kiyotaki-gawa River in the early summer (Kyoto) / ³õÏÄ¤ÎÇåœö´¨£¨¾©¶¼£©",
        "ispublic": 1,
        "isfriend": 0,
        "isfamily": 0
      },
      {
        "id": "14543303721",
        "owner": "29178312@N06",
        "secret": "93d18c64bd",
        "server": "2916",
        "farm": 3,
        "title": "Puente de San Mart¨ªn (St Martin's Bridge), Toledo, Spain",
        "ispublic": 1,
        "isfriend": 0,
        "isfamily": 0
      },
      {
        "id": "14543064831",
        "owner": "13085045@N08",
        "secret": "db81599d73",
        "server": "5589",
        "farm": 6,
        "title": "couleurs de Toronto : torontontario.tumblr.com",
        "ispublic": 1,
        "isfriend": 0,
        "isfamily": 0
      },
      {
        "id": "14541288024",
        "owner": "30005186@N02",
        "secret": "d0bf285165",
        "server": "5484",
        "farm": 6,
        "title": "Fountain Show",
        "ispublic": 1,
        "isfriend": 0,
        "isfamily": 0
      },
      {
        "id": "14540395811",
        "owner": "97652238@N00",
        "secret": "ec8dfa8be4",
        "server": "2913",
        "farm": 3,
        "title": "...",
        "ispublic": 1,
        "isfriend": 0,
        "isfamily": 0
      },
      {
        "id": "14361383000",
        "owner": "50109591@N06",
        "secret": "8d7a4749c8",
        "server": "5536",
        "farm": 6,
        "title": "Lovers",
        "ispublic": 1,
        "isfriend": 0,
        "isfamily": 0
      },
      {
        "id": "14358093400",
        "owner": "28746933@N06",
        "secret": "ed2ee4d7cf",
        "server": "5551",
        "farm": 6,
        "title": "DRMRS",
        "ispublic": 1,
        "isfriend": 0,
        "isfamily": 0
      },
      {
        "id": "14360502678",
        "owner": "65023787@N07",
        "secret": "833a5dc112",
        "server": "3847",
        "farm": 4,
        "title": "Cedar Waxwing",
        "ispublic": 1,
        "isfriend": 0,
        "isfamily": 0
      },
      {
        "id": "14357400437",
        "owner": "53133011@N06",
        "secret": "46649a7c9b",
        "server": "3894",
        "farm": 4,
        "title": "Horseback riding at Fairmont Chateau Lake Louise ...",
        "ispublic": 1,
        "isfriend": 0,
        "isfamily": 0
      },
      {
        "id": "14547398582",
        "owner": "75462784@N00",
        "secret": "7eb3e277b4",
        "server": "2919",
        "farm": 3,
        "title": "Ocean OH MY",
        "ispublic": 1,
        "isfriend": 0,
        "isfamily": 0
      },
      {
        "id": "14538662161",
        "owner": "94299432@N00",
        "secret": "ceb3830e0d",
        "server": "3877",
        "farm": 4,
        "title": "katz orange, berlin",
        "ispublic": 1,
        "isfriend": 0,
        "isfamily": 0
      },
      {
        "id": "14359151648",
        "owner": "53976093@N05",
        "secret": "65ff6ee478",
        "server": "3917",
        "farm": 4,
        "title": "The Tree | New Zealand",
        "ispublic": 1,
        "isfriend": 0,
        "isfamily": 0
      },
      {
        "id": "14541393805",
        "owner": "64596573@N00",
        "secret": "7d717b03ec",
        "server": "2895",
        "farm": 3,
        "title": "DILO - June 21 2014 (21)",
        "ispublic": 1,
        "isfriend": 0,
        "isfamily": 0
      },
      {
        "id": "14360703637",
        "owner": "71261045@N05",
        "secret": "126ac595f9",
        "server": "2936",
        "farm": 3,
        "title": "maize (Explore)",
        "ispublic": 1,
        "isfriend": 0,
        "isfamily": 0
      },
      {
        "id": "14362064329",
        "owner": "46267286@N07",
        "secret": "23d7a68e5d",
        "server": "3851",
        "farm": 4,
        "title": "Dawn Of A New Day In The New World (On Explore 30th June 2014)",
        "ispublic": 1,
        "isfriend": 0,
        "isfamily": 0
      },
      {
        "id": "14564259173",
        "owner": "56255303@N08",
        "secret": "56939eb184",
        "server": "2936",
        "farm": 3,
        "title": "Naran Strand, Portnoo, Donegal.",
        "ispublic": 1,
        "isfriend": 0,
        "isfamily": 0
      },
      {
        "id": "14563827713",
        "owner": "12281623@N07",
        "secret": "2048bff00f",
        "server": "3847",
        "farm": 4,
        "title": "The Artesia Supercell (Explored #20! Thanks!)",
        "ispublic": 1,
        "isfriend": 0,
        "isfamily": 0
      },
      {
        "id": "14562824023",
        "owner": "19467401@N00",
        "secret": "183cf9132b",
        "server": "3895",
        "farm": 4,
        "title": "utah county vista",
        "ispublic": 1,
        "isfriend": 0,
        "isfamily": 0
      },
      {
        "id": "14543185555",
        "owner": "93161065@N07",
        "secret": "e0f8c7bd4e",
        "server": "3893",
        "farm": 4,
        "title": "Buenos d¨ªas! (Jara collection of portraits ¡¤3)",
        "ispublic": 1,
        "isfriend": 0,
        "isfamily": 0
      },
      {
        "id": "14541332534",
        "owner": "8525370@N04",
        "secret": "9fda7db19f",
        "server": "3865",
        "farm": 4,
        "title": "Cloud City - Chicago",
        "ispublic": 1,
        "isfriend": 0,
        "isfamily": 0
      },
      {
        "id": "14361134308",
        "owner": "87786214@N07",
        "secret": "bfc5c1c2d0",
        "server": "2905",
        "farm": 3,
        "title": "Uplifting (Explored)",
        "ispublic": 1,
        "isfriend": 0,
        "isfamily": 0
      },
      {
        "id": "14544637325",
        "owner": "91902221@N04",
        "secret": "3309b67e7b",
        "server": "5516",
        "farm": 6,
        "title": "influx",
        "ispublic": 1,
        "isfriend": 0,
        "isfamily": 0
      },
      {
        "id": "14541537492",
        "owner": "21165611@N08",
        "secret": "a933fcd569",
        "server": "3916",
        "farm": 4,
        "title": "Enjoying the Yard",
        "ispublic": 1,
        "isfriend": 0,
        "isfamily": 0
      },
      {
        "id": "14357682560",
        "owner": "38850594@N02",
        "secret": "87578abf84",
        "server": "2921",
        "farm": 3,
        "title": "Whirl the Amur Tiger - Explore",
        "ispublic": 1,
        "isfriend": 0,
        "isfamily": 0
      },
      {
        "id": "14355552987",
        "owner": "52722219@N02",
        "secret": "7088b11815",
        "server": "2911",
        "farm": 3,
        "title": "in fila per due",
        "ispublic": 1,
        "isfriend": 0,
        "isfamily": 0
      },
      {
        "id": "14358497080",
        "owner": "91656171@N04",
        "secret": "da32a34db4",
        "server": "2927",
        "farm": 3,
        "title": "castelluccio di norcia (14)",
        "ispublic": 1,
        "isfriend": 0,
        "isfamily": 0
      },
      {
        "id": "14356819720",
        "owner": "9446955@N02",
        "secret": "11304b635d",
        "server": "3872",
        "farm": 4,
        "title": "\"If you worried about falling off the bike, you'd never get on\"",
        "ispublic": 1,
        "isfriend": 0,
        "isfamily": 0
      },
      {
        "id": "14546955294",
        "owner": "61603601@N08",
        "secret": "f2ce4b46f3",
        "server": "2915",
        "farm": 3,
        "title": "Bassano del Grappa",
        "ispublic": 1,
        "isfriend": 0,
        "isfamily": 0
      },
      {
        "id": "14543797352",
        "owner": "86968302@N02",
        "secret": "2ff4f94c5f",
        "server": "3861",
        "farm": 4,
        "title": "Evening in The 'Meadows",
        "ispublic": 1,
        "isfriend": 0,
        "isfamily": 0
      },
      {
        "id": "14541671055",
        "owner": "9853106@N06",
        "secret": "5545f9c959",
        "server": "2930",
        "farm": 3,
        "title": "Tour of America's Dairyland",
        "ispublic": 1,
        "isfriend": 0,
        "isfamily": 0
      },
      {
        "id": "14538157441",
        "owner": "46378751@N02",
        "secret": "0567f6e4b6",
        "server": "2920",
        "farm": 3,
        "title": "Skye Landscape [EXPLORE]",
        "ispublic": 1,
        "isfriend": 0,
        "isfamily": 0
      },
      {
        "id": "14523435926",
        "owner": "17165116@N07",
        "secret": "6c6abc60d9",
        "server": "3875",
        "farm": 4,
        "title": "Trail through sun flowers :: Explored ::",
        "ispublic": 1,
        "isfriend": 0,
        "isfamily": 0
      },
      {
        "id": "14518005276",
        "owner": "34256037@N00",
        "secret": "a26f7a813f",
        "server": "2940",
        "farm": 3,
        "title": "Maashaven",
        "ispublic": 1,
        "isfriend": 0,
        "isfamily": 0
      },
      {
        "id": "14361616827",
        "owner": "36030103@N07",
        "secret": "a0867d5078",
        "server": "2907",
        "farm": 3,
        "title": "Acadia National Park 10",
        "ispublic": 1,
        "isfriend": 0,
        "isfamily": 0
      },
      {
        "id": "14540490232",
        "owner": "7339724@N05",
        "secret": "327d5ae3f5",
        "server": "2898",
        "farm": 3,
        "title": "Einn ¨ª gulu tjaldi",
        "ispublic": 1,
        "isfriend": 0,
        "isfamily": 0
      },
      {
        "id": "14545096571",
        "owner": "73319835@N02",
        "secret": "d00387266d",
        "server": "2897",
        "farm": 3,
        "title": "Stormy Morning",
        "ispublic": 1,
        "isfriend": 0,
        "isfamily": 0
      },
      {
        "id": "14538640991",
        "owner": "91976414@N04",
        "secret": "182bf9891e",
        "server": "2909",
        "farm": 3,
        "title": "bubble",
        "ispublic": 1,
        "isfriend": 0,
        "isfamily": 0
      },
      {
        "id": "14357414159",
        "owner": "96973959@N00",
        "secret": "074d29bd32",
        "server": "3898",
        "farm": 4,
        "title": "NYC - June, 2014.",
        "ispublic": 1,
        "isfriend": 0,
        "isfamily": 0
      },
      {
        "id": "14356120699",
        "owner": "24208738@N06",
        "secret": "9d4763ab47",
        "server": "3870",
        "farm": 4,
        "title": "Peeking Camel",
        "ispublic": 1,
        "isfriend": 0,
        "isfamily": 0
      },
      {
        "id": "14355047809",
        "owner": "26895569@N07",
        "secret": "e4408efc27",
        "server": "2927",
        "farm": 3,
        "title": "D¨¦jame que te acompa?e",
        "ispublic": 1,
        "isfriend": 0,
        "isfamily": 0
      },
      {
        "id": "14546973152",
        "owner": "53217733@N00",
        "secret": "bf1a11bb5b",
        "server": "3882",
        "farm": 4,
        "title": "Ready for July 4 Weekend",
        "ispublic": 1,
        "isfriend": 0,
        "isfamily": 0
      },
      {
        "id": "14542534855",
        "owner": "69138688@N03",
        "secret": "0f99273fa6",
        "server": "3909",
        "farm": 4,
        "title": "Rythem and Booms Capital 20  2014-9341 {explore}",
        "ispublic": 1,
        "isfriend": 0,
        "isfamily": 0
      },
      {
        "id": "14360997647",
        "owner": "7582835@N04",
        "secret": "ae0df0bc95",
        "server": "2932",
        "farm": 3,
        "title": "A Vancouver sunset",
        "ispublic": 1,
        "isfriend": 0,
        "isfamily": 0
      },
      {
        "id": "14357400997",
        "owner": "58610507@N03",
        "secret": "13ae7cf320",
        "server": "3912",
        "farm": 4,
        "title": "Pyramidal Orchid - Anacamptis pyramidalis",
        "ispublic": 1,
        "isfriend": 0,
        "isfamily": 0
      },
      {
        "id": "14539606134",
        "owner": "37564613@N00",
        "secret": "fdec8599a4",
        "server": "3923",
        "farm": 4,
        "title": "The New Point Loma Light Station | First Lit in 1891",
        "ispublic": 1,
        "isfriend": 0,
        "isfamily": 0
      },
      {
        "id": "14358847247",
        "owner": "94405244@N03",
        "secret": "05b16c332e",
        "server": "3904",
        "farm": 4,
        "title": "Roofs and roads of Siena",
        "ispublic": 1,
        "isfriend": 0,
        "isfamily": 0
      },
      {
        "id": "14354724497",
        "owner": "50357135@N00",
        "secret": "59af49e279",
        "server": "3868",
        "farm": 4,
        "title": "It's not much ..",
        "ispublic": 1,
        "isfriend": 0,
        "isfamily": 0
      },
      {
        "id": "14522161146",
        "owner": "55522731@N07",
        "secret": "38b54a1882",
        "server": "3838",
        "farm": 4,
        "title": "Skipper",
        "ispublic": 1,
        "isfriend": 0,
        "isfamily": 0
      },
      {
        "id": "14519232466",
        "owner": "57872664@N04",
        "secret": "d0b9fb2003",
        "server": "3908",
        "farm": 4,
        "title": "One \"Daffy\" Duck",
        "ispublic": 1,
        "isfriend": 0,
        "isfamily": 0
      },
      {
        "id": "14567120373",
        "owner": "26171487@N05",
        "secret": "9231f5011a",
        "server": "5497",
        "farm": 6,
        "title": "",
        "ispublic": 1,
        "isfriend": 0,
        "isfamily": 0
      },
      {
        "id": "14356447068",
        "owner": "22483970@N08",
        "secret": "54355ae62e",
        "server": "5534",
        "farm": 6,
        "title": "Marblehead Lighthouse",
        "ispublic": 1,
        "isfriend": 0,
        "isfamily": 0
      },
      {
        "id": "14566964663",
        "owner": "22284286@N07",
        "secret": "d00b51f03d",
        "server": "2932",
        "farm": 3,
        "title": "Kluane Range - Kluane National Park",
        "ispublic": 1,
        "isfriend": 0,
        "isfamily": 0
      },
      {
        "id": "14565602583",
        "owner": "47344437@N05",
        "secret": "641482bb03",
        "server": "2927",
        "farm": 3,
        "title": "nothing like a bit of sunshine to make people smile :)",
        "ispublic": 1,
        "isfriend": 0,
        "isfamily": 0
      },
      {
        "id": "14545663154",
        "owner": "41003237@N05",
        "secret": "aaa55dd094",
        "server": "3884",
        "farm": 4,
        "title": "Sugar Creek Covered Bridge",
        "ispublic": 1,
        "isfriend": 0,
        "isfamily": 0
      },
      {
        "id": "14542450842",
        "owner": "91014382@N02",
        "secret": "4535933c8c",
        "server": "2914",
        "farm": 3,
        "title": "Oia",
        "ispublic": 1,
        "isfriend": 0,
        "isfamily": 0
      }
    ]
  },
  "stat": "ok"
}